<?xml version="1.0" encoding="UTF-8"?><COLLADA xmlns="http://www.collada.org/2005/11/COLLADASchema" version="1.4.1">
<asset>
<contributor>
<author>VoxelShop User</author>
<authoring_tool>VoxelShop V1.5.02</authoring_tool>
</contributor>
<created>2016-04-28T21:13:33</created>
<modified>2016-04-28T21:13:33</modified>
<unit meter="1" name="meter"/>
<up_axis>Y_UP</up_axis>
</asset>
<library_images>
<image id="Tree_texture0-image" name="Tree_texture0-image">
<init_from>Tree_texture0.png</init_from>
</image>
</library_images>
<library_effects>
<effect id="lambert0-fx">
<profile_COMMON>
<newparam sid="Tree_texture0-surface">
<surface type="2D">
<init_from>Tree_texture0-image</init_from>
</surface>
</newparam>
<newparam sid="Tree_texture0-sampler">
<sampler2D>
<source>Tree_texture0-surface</source>
</sampler2D>
</newparam>
<technique sid="common">
<lambert>
<emission>
<color>0 0 0 1</color>
</emission>
<ambient>
<color>0 0 0 1</color>
</ambient>
<diffuse>
<texture texcoord="TEX0" texture="Tree_texture0-sampler"/>
</diffuse>
</lambert>
</technique>
</profile_COMMON>
</effect>
</library_effects>
<library_materials>
<material id="lambert0-material" name="lambert0">
<instance_effect url="#lambert0-fx"/>
</material>
</library_materials>
<library_geometries>
<geometry id="Plane-tex-mesh" name="Plane-tex">
<mesh>
<source id="Plane-tex-mesh-positions">
<float_array count="2187" id="Plane-tex-mesh-positions-array">-1 39 -1 -1 37 -5 -1 37 -1 -1 39 -5 -1 37 5 -1 35 1 -1 35 5 -1 37 1 -1 33 -9 -1 31 -11 -1 31 -9 -1 33 -11 -1 29 -13 -1 27 -11 -1 27 -13 -1 31 -13 -1 27 -15 -1 19 -13 -1 29 -15 -1 19 -17 -1 27 -17 -1 11 7 -1 7 5 -1 7 7 -1 11 5 -1 7 -7 -1 5 -9 -1 5 -7 -1 7 -9 -1 3 -11 -1 1 -9 -1 1 -15 -1 5 -11 -1 3 -15 -3 37 1 -3 35 -5 -3 35 1 -3 37 -5 -3 35 7 -3 33 3 -3 33 7 -3 35 3 -3 29 19 -3 25 17 -3 25 19 -3 29 17 -3 23 11 -3 19 7 -3 19 11 -3 23 7 -3 21 -11 -3 19 -13 -3 19 -11 -3 21 -13 -3 19 -3 -3 17 -5 -3 17 -3 -3 19 -5 -3 17 -13 -3 15 -15 -3 15 -13 -3 17 -15 -3 15 5 -3 17 5 -3 13 -3 -3 11 5 -3 9 5 -3 15 7 -3 9 -5 -3 11 7 -3 11 -5 -3 13 -5 -3 11 -7 -3 7 -7 -3 7 -5 -3 7 7 -3 5 5 -3 5 7 -3 7 5 -3 5 -7 -3 1 -9 -3 1 -7 -3 5 -9 -3 3 21 -3 1 17 -3 1 21 -3 3 17 -5 37 -5 -5 35 -7 -5 35 -5 -5 37 -7 -5 35 3 -5 33 -5 -5 33 3 -5 33 7 -5 31 5 -5 31 7 -5 33 5 -5 33 15 -5 31 13 -5 31 15 -5 29 13 -5 33 11 -5 29 15 -5 31 11 -5 31 17 -5 23 17 -5 25 15 -5 23 11 -5 25 11 -5 19 7 -5 17 -3 -5 17 7 -5 19 -3 -5 13 -7 -5 13 -3 -5 17 -7 -5 9 5 -5 7 3 -5 5 5 -5 5 3 -5 9 -5 -5 7 -5 -5 5 -7 -5 5 -5 -5 7 -7 -5 3 13 -5 1 11 -5 1 13 -5 3 11 -7 35 11 -7 31 7 -7 31 11 -7 29 7 -7 35 7 -7 31 5 -7 29 13 -7 29 3 -7 31 13 -7 33 5 -7 27 3 -7 33 -5 -7 27 7 -7 29 -9 -7 33 -9 -7 35 -5 -7 35 -11 -7 33 -11 -7 29 15 -7 25 13 -7 25 15 -7 27 -11 -7 23 -13 -7 21 -11 -7 21 -13 -7 27 -13 -7 23 -15 -7 27 -15 -7 25 11 -7 23 7 -7 23 11 -7 25 7 -7 21 7 -7 19 -9 -7 19 7 -7 21 -9 -7 7 3 -7 5 -5 -7 5 3 -7 3 3 -7 7 -5 -7 1 -5 -7 3 7 -7 1 3 -7 5 9 -7 3 9 -7 1 7 -7 1 9 -9 29 -9 -9 33 -9 -9 33 -13 -9 27 -11 -9 27 -13 -9 29 -7 -9 21 -7 -9 21 -11 -9 29 13 -9 27 7 -9 25 13 -9 25 7 -9 29 7 -9 27 3 -9 21 1 -9 29 1 -9 21 7 -9 29 3 -9 5 -5 -9 3 -7 -9 3 -5 -9 5 -7 -9 3 -9 -9 1 -11 -9 1 -9 -9 3 -11 -9 3 7 -9 1 5 -9 1 7 -9 3 5 -9 3 11 -9 1 9 -9 1 11 -9 3 9 -11 29 1 -11 27 -1 -11 21 1 -11 23 -1 -11 29 -7 -11 21 -7 -11 27 -5 -11 23 -5 -11 3 -7 -11 5 -7 -11 5 -9 -11 1 -9 -11 1 -5 -11 3 -5 -11 3 -11 -11 1 -13 -11 1 -11 -11 3 -13 -11 3 -1 -11 1 -3 -11 1 -1 -11 3 -3 -11 3 13 -11 1 11 -11 1 13 -11 3 11 -13 27 -1 -13 23 -5 -13 23 -1 -13 27 -5 -13 3 -13 -13 1 -15 -13 1 -13 -13 3 -15 -13 3 -3 -13 1 -5 -13 1 -3 -13 3 -5 -13 3 5 -13 1 3 -13 1 5 -13 3 3 -13 3 15 -13 1 13 -13 1 15 -13 3 13 -17 1 21 -17 -1 -19 -17 -1 21 -17 1 -19 17 3 -3 17 1 -7 17 1 -3 17 3 -7 15 5 13 15 3 9 15 1 13 15 1 9 15 5 7 15 3 7 11 3 9 11 1 7 11 1 9 11 3 7 11 3 -13 11 1 -15 11 1 -13 11 3 -15 9 37 -5 9 35 -7 9 35 -5 9 37 -9 9 35 -9 9 33 -9 9 33 -7 9 35 9 9 33 7 9 33 9 9 35 7 9 3 -11 9 1 -13 9 1 -11 9 3 -13 7 37 7 7 35 5 7 35 7 7 37 5 7 35 -9 7 33 -11 7 33 -9 7 35 -11 7 13 7 7 9 5 7 9 7 7 13 5 7 5 -7 7 3 -9 7 1 -7 7 1 -11 7 5 -9 7 3 -11 5 11 -5 5 1 -7 5 1 -5 5 11 -7 5 5 9 5 7 9 5 7 7 5 1 7 5 1 9 3 3 17 3 5 17 3 5 15 3 1 15 3 1 17 3 5 11 3 1 9 3 1 11 3 5 9 3 3 21 3 1 19 3 1 21 3 3 19 1 39 3 1 37 -1 1 37 3 1 39 -1 1 35 -7 1 33 -11 1 33 -7 1 35 -11 1 31 -13 1 31 -11 1 33 -13 1 21 -9 1 19 -11 1 19 -9 1 21 -11 1 19 -13 1 17 -15 1 17 -13 1 19 -15 1 17 -9 1 15 -11 1 15 -9 1 13 -11 1 13 -5 1 15 -13 1 15 -5 1 5 15 1 1 11 1 1 15 1 5 11 1 3 -15 1 1 -17 1 1 -15 1 3 -17 1 33 15 1 31 13 1 31 15 1 33 13 1 29 19 1 25 17 1 25 19 1 29 17 1 15 7 1 13 5 1 13 7 1 15 5 1 7 -7 1 5 -9 1 1 -7 1 3 -9 1 7 -9 1 1 -9 1 3 -11 1 5 -11 1 3 -13 1 1 -13 -1 35 -7 -1 33 -7 -1 35 -9 -1 17 -5 -1 13 -7 -1 13 -5 -1 17 -7 -1 11 -5 -1 9 -7 -1 9 -5 -1 11 -7 -1 3 21 -1 1 19 -1 1 21 -1 3 19 -3 35 11 -3 33 9 -3 33 11 -3 31 9 -3 31 11 -3 35 -9 -3 31 -11 -3 31 -9 -3 35 -11 -3 3 13 -3 1 7 -3 1 13 -3 3 7 -5 33 -11 -5 27 -13 -5 27 -11 -5 33 -13 -5 23 -15 -5 23 -13 -5 27 -15 -5 5 9 -5 3 7 -5 3 9 -5 5 7 -7 5 -7 -7 3 -9 -7 1 -7 -7 1 -13 -7 5 -9 -7 3 -13 -9 3 15 -9 1 15 -9 3 -1 -9 1 -5 -9 1 -1 -9 3 -13 -9 1 -15 -9 1 -13 -9 3 -15 23 3 -5 23 1 -7 23 1 -5 23 -1 -19 23 3 -7 23 1 -19 23 -1 21 23 1 21 19 5 13 19 1 7 19 1 13 19 5 7 19 3 -1 19 1 -5 19 1 -1 19 3 -5 17 29 3 17 25 -1 17 25 3 17 29 -1 17 3 1 17 1 -1 17 1 1 17 3 -1 15 31 5 15 29 3 15 23 5 15 25 3 15 31 -3 15 23 -3 15 29 -1 15 25 -1 15 27 -9 15 23 -13 15 23 -9 15 27 -13 15 5 1 15 3 -1 15 3 1 15 5 -1 15 3 3 15 1 1 15 1 3 13 37 -5 13 31 -9 13 31 -5 13 27 -9 13 37 -9 13 27 -11 13 23 -3 13 31 -11 13 23 -9 13 31 -3 13 21 -11 13 23 -11 13 21 7 13 23 5 13 25 7 13 31 5 13 25 9 13 35 9 13 35 5 13 17 3 13 13 -1 13 13 3 13 17 -1 13 7 3 13 5 1 13 3 3 13 3 1 13 7 -1 13 5 -1 13 3 -3 13 3 -1 13 5 -3 13 3 -11 13 1 -15 13 1 -11 13 3 -15 13 1 -5 13 1 -3 13 3 -5 13 3 7 13 1 3 13 1 7 11 35 -1 11 37 -1 11 37 -5 11 31 -5 11 31 5 11 35 5 11 35 -9 11 31 -11 11 31 -9 11 35 -11 11 27 -13 11 27 -11 11 31 -13 11 31 11 11 25 9 11 25 11 11 31 9 11 23 7 11 23 9 11 25 7 11 23 -11 11 21 -13 11 21 -11 11 23 -13 11 21 7 11 19 -9 11 19 7 11 21 -9 11 9 1 11 7 -1 11 7 1 11 9 -7 11 5 -3 11 5 -7 11 5 -1 11 3 -5 11 3 -9 11 3 -3 11 1 -5 11 5 -9 11 1 -11 11 3 -11 11 9 5 11 7 3 11 7 5 11 3 3 11 9 3 11 7 7 9 37 7 9 35 -1 9 37 -1 9 27 13 9 31 13 9 31 11 9 25 11 9 23 15 9 23 11 9 27 15 9 23 9 9 21 9 9 25 9 9 23 7 9 21 11 9 19 7 9 19 9 9 17 5 9 17 7 9 17 3 9 19 -5 9 13 3 9 17 -1 9 13 5 9 15 -3 9 9 3 9 11 -5 9 15 -1 9 9 1 9 9 5 9 9 -3 9 7 1 9 13 -1 9 13 7 9 9 -7 9 7 3 9 9 -1 9 9 7 9 11 -7 9 5 11 9 1 7 9 1 11 9 5 7 7 35 -7 7 33 -7 7 25 -13 7 21 -15 7 21 -13 7 25 -15 7 15 -1 7 11 -3 7 11 -1 7 15 -3 7 7 9 7 5 7 7 5 9 7 7 7 7 3 15 7 1 11 7 1 15 7 3 11 5 39 3 5 37 -3 5 37 3 5 39 -3 5 37 -5 5 35 -7 5 35 -5 5 37 -7 5 35 -9 5 33 -11 5 33 -9 5 35 -11 5 31 -13 5 31 -11 5 33 -13 5 27 -13 5 25 -15 5 25 -13 5 27 -15 5 21 -15 5 23 -15 5 23 -17 5 19 -17 5 19 -11 5 21 -11 5 13 7 5 7 5 5 13 5 5 11 -1 5 9 -3 5 9 -1 5 11 -3 5 5 17 5 3 15 5 3 17 5 1 15 5 5 11 5 1 21 5 3 11 5 3 21 3 39 -3 3 37 -5 3 37 -3 3 39 -5 3 33 13 3 31 11 3 31 13 3 33 11 3 31 17 3 27 15 3 23 17 3 23 15 3 27 13 3 29 -13 3 27 -15 3 27 -13 3 29 -15 3 23 -17 3 23 -15 3 27 -17 3 21 -9 3 19 -11 3 19 -9 3 21 -11 3 21 11 3 19 9 3 19 11 3 21 9 3 17 -13 3 19 -13 3 19 -15 3 15 -15 3 15 -11 3 17 -9 3 15 -9 3 13 -11 3 13 -5 3 15 -5 3 9 -5 3 1 -7 3 1 -5 3 9 -7 3 3 -15 3 1 -17 3 1 -15 3 3 -17 3 3 -9 3 1 -13 3 1 -9 3 3 -13</float_array>
<technique_common>
<accessor count="729" source="#Plane-tex-mesh-positions-array" stride="3">
<param name="X" type="float"/>
<param name="Y" type="float"/>
<param name="Z" type="float"/>
</accessor>
</technique_common>
</source>
<source id="Plane-tex-mesh-uvs">
<float_array count="1564" id="Plane-tex-mesh-uvs-array">0.8214791 0.18188247 0.8571176 0.2725987 0.8571176 0.18188247 0.8214538 0.18194674 0.8214538 0.272663 0.8570923 0.272663 0.67862195 0.18188247 0.71426046 0.2725987 0.71426046 0.18188247 0.6785967 0.18194674 0.6785967 0.272663 0.7142352 0.272663 0.28576478 0.09097337 0.32140332 0.18168962 0.32140332 0.09097337 0.28573954 0.09103765 0.28573954 0.1817539 0.32137805 0.1817539 0.8214583 0.18186861 0.83928573 0.27262643 0.8571131 0.18186861 0.8214791 0.272663 0.8571176 0.272663 0.8571176 0.18194674 0.85707897 0.18185884 0.7143177 0.18185884 0.7143177 0.27264595 0.8571143 0.18187273 0.71434283 0.22727273 0.8571143 0.2726727 0.7143177 0.18189949 0.7143177 0.27268663 0.85707897 0.27268663 0.28576478 0.45460975 0.32140332 0.545326 0.32140332 0.45460975 0.28573954 0.454674 0.28573954 0.54539025 0.32137805 0.54539025 0.285744 0.4545959 0.30357143 0.5453537 0.32139885 0.4545959 0.28575715 0.48486668 0.32140714 0.54536366 0.32140714 0.4546182 0.910741 0.63624287 0.9642323 0.54551494 0.910741 0.54551494 0.9107677 0.63630325 0.964259 0.63630325 0.964259 0.5455753 0.32137805 0.45460975 0.28573954 0.45460975 0.28573954 0.545326 0.32139885 0.54540414 0.30357143 0.45464632 0.285744 0.54540414 0.321375 0.45463637 0.30357143 0.45463637 0.28576785 0.5452727 0.3214057 0.45465022 0.28576002 0.52723783 0.3214057 0.5453847 0.321375 0.54536366 0.28576785 0.45472726 0.30357143 0.54536366 0.8214484 0.18189383 0.8214484 0.27265164 0.8571032 0.22727273 0.6785993 0.18187498 0.68751115 0.2726137 0.7142467 0.18187498 0.6786279 0.27264103 0.70236963 0.27264103 0.71424055 0.18199067 0.92857885 0.6362628 0.9642486 0.545505 0.910744 0.545505 0.39281753 0.7271971 0.35716265 0.54560584 0.35716265 0.7271971 0.35718247 0.7271971 0.39283735 0.7271971 0.39283735 0.54560584 0.39283928 0.90898865 0.35717857 0.8181818 0.39283928 0.727375 0.14288239 0.81805325 0.14288239 0.727337 0.17852092 0.727337 0.42859125 0.363712 0.42859125 0.5150381 0.4642461 0.39397722 0.42861104 0.5453789 0.4642659 0.5453789 0.4642659 0.36378765 0.8570923 0.18188247 0.8214538 0.18188247 0.8214538 0.2725987 0.8571214 0.1818909 0.82147145 0.2121394 0.8571214 0.27263635 0.857123 0.18189383 0.8214682 0.22727273 0.857123 0.27265164 0.9285714 0.8182727 0.8929375 0.8182727 0.9642054 0.9089091 0.892885 0.8182386 0.892885 0.9090057 0.96422994 0.83639205 0.89291054 0.8787728 0.964259 0.9090305 0.964259 0.81825733 0.89291656 0.9090405 0.964256 0.9090405 0.964256 0.81828266 0.82145 0.18190908 0.82145 0.27265453 0.8571 0.24240606 0.9642263 0.545505 0.8928869 0.6362628 0.8928869 0.545505 0.964256 0.5455554 0.964256 0.6363132 0.89291656 0.6363132 0.6785516 0.59081453 0.6428968 0.5000189 0.6785516 0.4546211 0.28576478 0.1817539 0.32140332 0.1817539 0.32140332 0.09103765 0.6785318 0.636288 0.642877 0.636288 0.642877 0.45469674 0.17854618 0.81805325 0.14290765 0.727337 0.17854618 0.727337 0.17852092 0.81811756 0.14288239 0.81811756 0.14288239 0.7274013 0.28576478 0.54539025 0.32140332 0.54539025 0.32140332 0.454674 0.28573573 0.4546182 0.28573573 0.54536366 0.3213857 0.48486668 0.91075 0.59090906 0.92858034 0.54554546 0.9642411 0.6362727 0.9642323 0.63630325 0.910741 0.63630325 0.910741 0.5455753 0.9642054 0.54554546 0.9285714 0.54554546 0.8929375 0.63618183 0.75001836 0.909013 0.8213918 0.81815064 0.75001836 0.5455637 0.035776727 0.18177404 0.14282592 0.18177404 0.14282592 0.09099739 0.67860115 0.18186861 0.6964286 0.27262643 0.714256 0.18186861 0.67862195 0.272663 0.71426046 0.272663 0.71426046 0.18194674 0.8928869 0.5455554 0.8928869 0.6363132 0.9642263 0.6363132 0.96424705 0.54556394 0.9107626 0.60603875 0.9464189 0.6362761 0.8571038 0.27267048 0.8303683 0.18193176 0.82145643 0.27267048 0.8929143 0.49994546 0.9642571 0.36374545 0.9642571 0.49994546 0.67859375 0.18188918 0.67859375 0.2726279 0.7142411 0.20457385 0.67861605 0.20457385 0.7142634 0.2726279 0.7142634 0.18188918 0.6786392 0.27261227 0.7142518 0.24239549 0.7142518 0.18196192 0.6786053 0.18196192 0.6786053 0.24239549 0.71421796 0.27261227 0.68751115 0.18193176 0.6785993 0.27267048 0.7142467 0.27267048 0.70236963 0.18190442 0.6786279 0.18190442 0.71424055 0.27255479 0.32140875 0.4546211 0.2857539 0.5 0.32140875 0.5453789 0.46433622 0.8182461 0.49997476 0.90896237 0.49997476 0.8182461 0.46431097 0.8183104 0.46431097 0.9090266 0.49994949 0.9090266 0.10717257 0.3636868 0.14285715 0.5453537 0.17854172 0.3636868 0.35716265 0.86354184 0.35716265 0.7273484 0.39281753 0.7727462 0.17863615 0.4545839 0.3571105 0.5453777 0.3571105 0.4545839 0.1786038 0.45462233 0.1786038 0.5454161 0.35707814 0.5454161 0.32139286 0.5454 0.2976262 0.45465454 0.28574285 0.5454 0.2857341 0.4546211 0.2857341 0.5453789 0.32138896 0.5 0.32140714 0.45463637 0.28575715 0.5151333 0.32140714 0.54538184 0.35716265 0.7271215 0.39281753 0.5455302 0.35716265 0.5455302 0.28574285 0.4546 0.2976262 0.5453454 0.32139286 0.4546 0.28576785 0.54536366 0.321375 0.45472726 0.4643148 0.81826633 0.4643148 0.8312217 0.4999419 0.90895355 0.49997875 0.8182711 0.46432823 0.8772565 0.49997875 0.90901786 0.49994949 0.8182461 0.46431097 0.8182461 0.46431097 0.90896237 0.42854285 0.36374545 0.42854285 0.49994546 0.3572 0.49994546 0.28574216 0.09096588 0.294654 0.1817046 0.32138953 0.09096588 0.28577074 0.18173194 0.30951253 0.18173194 0.3213834 0.09108158 0.2857366 0.090980075 0.2857366 0.1817188 0.32138395 0.11366476 0.2857589 0.11366476 0.32140628 0.1817188 0.32140628 0.090980075 0.28578204 0.1817032 0.32139468 0.1514864 0.32139468 0.09105283 0.28574815 0.09105283 0.28574815 0.1514864 0.3213608 0.1817032 0.294654 0.09102267 0.28574216 0.18176138 0.32138953 0.18176138 0.30951253 0.090995334 0.28577074 0.090995334 0.3213834 0.18164569 0.87497145 0.6362182 0.8571357 0.27287272 0.8214643 0.45454547 0.9642286 0.40914544 0.8928857 0.40914544 0.8928857 0.5453454 0.89291656 0.545505 0.964256 0.545505 0.964256 0.6362628 0.46431765 0.8183241 0.46431765 0.886323 0.4999361 0.90898925 0.49997967 0.9090162 0.49997967 0.81826234 0.46432638 0.86868113 0.49993876 0.8182754 0.46431634 0.8364104 0.46431634 0.90895057 0.5714107 0.5453523 0.53575 0.45454547 0.5714107 0.36373863 0.9107269 0.5455401 0.9642416 0.6363208 0.89288867 0.6363208 0.96421427 0.63624245 0.91075 0.54557574 0.9642573 0.54550964 0.9464245 0.6362535 0.91967535 0.54550964 0.9107514 0.6363132 0.94642115 0.5455554 0.89288324 0.54552543 0.9642335 0.59999114 0.89288324 0.63630164 0.28567436 0.81814116 0.14291304 0.81814116 0.24998403 0.72735405 0.071428575 0.4091818 0.10708929 0.5453409 0.035767857 0.45456818 0.39283735 0.7271215 0.39283735 0.5455302 0.35718247 0.5455302 0.84523094 0.18192728 0.8214643 0.2726727 0.85710716 0.18190908 0.8214643 0.22727273 0.83928573 0.27263635 0.8571131 0.27267686 0.83928573 0.18191904 0.8214583 0.27267686 0.17857143 0.091 0.1429375 0.18163636 0.21420535 0.091 0.17145601 0.18175998 0.21425141 0.18175998 0.18572114 0.09102549 0.2857857 0.5453182 0.32139286 0.5 0.32139286 0.4546818 0.28575 0.54536366 0.28575 0.4546 0.30951667 0.5453454 0.3214 0.4546 0.89291656 0.81823224 0.964256 0.90899 0.964256 0.81823224 0.8928869 0.81828266 0.8928869 0.9090405 0.9642263 0.9090405 0.8571214 0.18190908 0.82147145 0.24240606 0.8571214 0.27265453 0.28567323 0.545411 0.17862274 0.545411 0.24998973 0.45463252 0.67859125 0.18189383 0.67859125 0.27265164 0.7142461 0.22727273 0.6785516 0.63621235 0.6428968 0.4546211 0.8928973 0.6363182 0.96424556 0.6363182 0.7142352 0.18188247 0.6785967 0.18188247 0.6785967 0.2725987 0.7142643 0.1818909 0.67861426 0.2121394 0.7142643 0.27263635 0.9107442 0.54551804 0.9285789 0.63627476 0.9642483 0.5682072 0.964259 0.63624287 0.964259 0.54551494 0.9107677 0.54551494 0.4643096 0.8182967 0.4643096 0.90902334 0.49995223 0.8989426 0.46433622 0.9090266 0.49997476 0.9090266 0.49997476 0.8183104 0.42860714 0.18202272 0.42860714 0.27272728 0.4642143 0.3634318 0.42861608 0.1819716 0.452372 0.36348295 0.46425 0.27272728 0.42858928 0.18192045 0.42858928 0.3635341 0.82146764 0.18187498 0.8482031 0.2726137 0.857115 0.18187498 0.8214898 0.27263373 0.8571122 0.2544987 0.8571122 0.1819585 0.85710084 0.21592246 0.8214496 0.18189171 0.8214496 0.27264038 0.8214509 0.18191756 0.8214509 0.2726563 0.8570982 0.2499716 0.8214737 0.27264103 0.83334464 0.27264103 0.85708636 0.18199067 0.8571027 0.27261364 0.83928573 0.18190908 0.8214688 0.21214394 0.8571218 0.18190508 0.82147056 0.238623 0.8571218 0.27265376 0.96424556 0.5455 0.9285714 0.6362727 0.8928973 0.5455 0.82145 0.1818909 0.82145 0.27263635 0.8571 0.2121394 0.8214821 0.18190908 0.8570893 0.27254546 0.8215 0.2725909 0.85710716 0.22727273 0.85710716 0.18195455 0.83334047 0.18192728 0.82145715 0.2726727 0.85710716 0.2726727 0.8214722 0.18187805 0.852024 0.27260754 0.857116 0.18187805 0.8214743 0.20003492 0.85712 0.27262253 0.85712 0.18188801 0.17854618 0.7274013 0.17854618 0.81811756 0.14290765 0.81811756 0.39283928 0.54555684 0.35717857 0.6363636 0.39283928 0.72717047 0.35716072 0.72717047 0.39282143 0.6363636 0.35716072 0.54555684 0.49996838 0.81823355 0.4643151 0.81823355 0.48016098 0.9089874 0.4643393 0.8183636 0.48214287 0.909 0.49994642 0.909 0.49994513 0.81838554 0.46436802 0.90894544 0.4928297 0.88630545 0.49996465 0.870117 0.46435642 0.81832325 0.49996465 0.90896237 0.46432525 0.8636364 0.49106014 0.9090047 0.49997178 0.81826806 0.46430588 0.8182608 0.46430588 0.9090159 0.49995968 0.8671289 0.46433035 0.8182841 0.4880863 0.90898865 0.4999643 0.8636364 0.46435347 0.9089759 0.4999661 0.87875915 0.4999661 0.8183256 0.46432534 0.8636364 0.49998018 0.9090153 0.49998018 0.81825745 0.46430802 0.8182812 0.46430802 0.90901995 0.4999554 0.88633525 0.4643259 0.8182955 0.49995983 0.87876517 0.46432143 0.81823635 0.4880881 0.9089818 0.49997142 0.81823635 0.4857093 0.8182871 0.46432543 0.90900666 0.49996525 0.87876683 0.49996534 0.81825745 0.49402782 0.81825745 0.46434018 0.9089396 0.4999643 0.90895456 0.46435714 0.8183182 0.4857092 0.8182792 0.46432653 0.9089935 0.46432856 0.84850305 0.49997857 0.909 0.49997857 0.81825453 0.48214287 0.81828266 0.46431544 0.9090405 0.4999703 0.9090405 0.47322857 0.8182909 0.46432143 0.8636364 0.49995 0.9089818 0.46430552 0.81825745 0.46430552 0.9090153 0.4999604 0.8636364 0.46787944 0.8182528 0.4643164 0.8182528 0.499947 0.90894896 0.4999657 0.9090003 0.48412433 0.8182725 0.46432266 0.8636364 0.46432248 0.908935 0.49994487 0.8182598 0.47144696 0.8182598 0.48214287 0.8182727 0.4643393 0.8182727 0.49994642 0.9089091 0.4999643 0.90903634 0.47619763 0.8182909 0.46431428 0.90903634 0.4910603 0.8182954 0.46432477 0.90903413 0.4999721 0.90903413 0.4643196 0.8182968 0.4643196 0.8485136 0.49993223 0.90894717 0.49996498 0.87877005 0.47619748 0.818271 0.46431375 0.9090196 0.46432108 0.81832325 0.46432108 0.870117 0.49992928 0.90896237 0.46432143 0.909 0.46431428 0.81826365 0.46431428 0.8296 0.49994287 0.90895456 0.46431822 0.81828713 0.46431822 0.8430128 0.49993497 0.90894794 0.46432143 0.8183182 0.49992856 0.90895456 0.46432626 0.85909605 0.49997973 0.9090109 0.49997973 0.8182567 0.46432856 0.8787697 0.49997857 0.90901816 0.49997857 0.8182727 0.4999436 0.81831735 0.4643139 0.89893407 0.4643139 0.9090112 0.4643393 0.909 0.49994642 0.8183636 0.49992856 0.8183182 0.46432143 0.90895456 0.46431428 0.81823635 0.47619763 0.9089818 0.4999643 0.81823635 0.49997768 0.8182528 0.46433035 0.8409375 0.49997768 0.9089915 0.4999361 0.8183241 0.46431765 0.90898925 0.49995983 0.90897727 0.4643259 0.8485076 0.46431497 0.81823397 0.47959477 0.9089866 0.4999678 0.81823397 0.4643196 0.8183256 0.4643196 0.87875915 0.49993223 0.9089759 0.4643167 0.81827056 0.47619823 0.9090022 0.49996126 0.8636364 0.49995536 0.90898865 0.47619942 0.8182841 0.49996096 0.90903413 0.47322544 0.8182954 0.4643136 0.90903413 0.67861164 0.18193182 0.6964286 0.27263635 0.71424556 0.24240151 0.9285714 0.54536366 0.89289284 0.45454547 0.96425 0.36372727 0.8214643 0.18190908 0.8214732 0.20457385 0.8571206 0.2726279 0.8571206 0.18188918 0.32137805 0.09097337 0.28573954 0.09097337 0.28573954 0.18168962 0.32140875 0.09098473 0.2857539 0.13636364 0.32140875 0.18174253 0.6786126 0.18187638 0.7071291 0.27261087 0.71425825 0.18187638 0.67861104 0.22727273 0.7142659 0.27265164 0.7142659 0.18189383 0.85710716 0.27263635 0.8929077 0.59090906 0.96426046 0.5455188 0.96426046 0.6362994 0.9642323 0.6060455 0.89288384 0.63630325 0.89288384 0.54553 0.9642255 0.63625 0.8929174 0.57578033 0.8570982 0.20457385 0.8214509 0.18188918 0.8214509 0.2726279 0.8214737 0.27255479 0.85708636 0.18190442 0.83334464 0.18190442 0.8571138 0.27267444 0.842853 0.18192387 0.8214618 0.27267444 0.8214643 0.18195455 0.8570714 0.2725909 0.8214643 0.18187273 0.84523094 0.27261817 0.642875 0.63626134 0.642875 0.45464772 0.6785357 0.54545456 0.3214057 0.09097893 0.28576002 0.10912583 0.3214057 0.18171342 0.85712 0.18192294 0.8214743 0.25451052 0.85712 0.27265742 0.8214685 0.27256465 0.85708696 0.18189949 0.8303731 0.18189949 0.8571136 0.27267513 0.84183383 0.18192245 0.8214608 0.27267513 0.82145184 0.18188721 0.82145184 0.2726188 0.8570964 0.19700915 0.14287695 0.7273484 0.17853181 0.77272725 0.14287695 0.8181062 0.17854172 0.7273232 0.16071428 0.81808096 0.14288686 0.7273232 0.42860714 0.45454547 0.4642143 0.54525 0.42860714 0.3638409 0.2856607 0.81813633 0.14291072 0.81813633 0.21428572 0.72736365 0.42861605 0.36370736 0.4642634 0.5150095 0.4642634 0.36370736 0.42859372 0.36377835 0.42859372 0.5150805 0.4642411 0.5150805 0.3214 0.5454 0.30951667 0.45465454 0.28575 0.5454 0.46422857 0.86358184 0.3928857 0.7273818 0.3928857 0.86358184 0.035742857 0.7271636 0.035742857 0.59096366 0.10708571 0.59096366 0.28575 0.4546818 0.28575 0.5 0.32135713 0.5453182 0.42861104 0.45456436 0.4642659 0.54535997 0.4642659 0.40916654 0.42858928 0.36373863 0.42858928 0.5453523 0.46425 0.45454547 0.53573215 0.36373863 0.53573215 0.5453523 0.57139283 0.45454547 0.6785985 0.18187734 0.6845393 0.27260894 0.7142431 0.18187734 0.8214643 0.27263635 0.2857626 0.45463914 0.3124862 0.54533744 0.32139406 0.4848719 0.2857576 0.4546557 0.30951515 0.54536635 0.32139394 0.51512945 0.32139286 0.54536366 0.91967535 0.63630855 0.9642573 0.63630855 0.9464245 0.5455647 0.6785983 0.18187805 0.68369025 0.27260754 0.71424204 0.18187805 0.4642461 0.5453789 0.42859125 0.36378765 0.42859125 0.5453789 0.4642659 0.5453033 0.4642659 0.363712 0.42861104 0.363712 0.4999703 0.81823224 0.46431544 0.81823224 0.48214287 0.90899 0.4643387 0.8183238 0.49640626 0.90901995 0.49996933 0.90901995 0.46432248 0.909013 0.47144696 0.909013 0.49994487 0.81833774 0.46431786 0.90901816 0.46877143 0.90901816 0.49994642 0.81832725 0.2857341 0.5455302 0.2857341 0.7271971 0.35710323 0.6363636 0.82145715 0.18187273 0.83334047 0.27261817 0.85710716 0.18187273 0.78571427 0.27263635 0.71433926 0.18186364 0.8570893 0.18186364 0.96424556 0.90904546 0.8928973 0.90904546 0.6785536 0.45464772 0.64289284 0.54545456 0.6785536 0.63626134 0.8928869 0.63641405 0.964256 0.63641405 0.9285714 0.81808096 0.50002974 0.7273232 0.53571427 0.90899 0.57139885 0.7273232 0.642877 0.6818938 0.642877 0.86353046 0.6785318 0.72730297 0.66071427 0.45463637 0.64289284 0.59079546 0.6785357 0.5000227 0.6428968 0.636288 0.6785516 0.636288 0.6785516 0.45469674 0.285744 0.09095952 0.30357143 0.18171732 0.32139885 0.09095952 0.9642643 0.5455273 0.9107571 0.59090906 0.9642643 0.6362909 0.9642486 0.81823224 0.92857885 0.90899 0.910744 0.81823224 0.8928824 0.6362994 0.9642352 0.59090906 0.8928824 0.5455188 0.94642115 0.6362628 0.9107514 0.545505 0.14282592 0.18172988 0.035776727 0.09095324 0.14282592 0.09095324 0.1427947 0.18177404 0.035745505 0.18177404 0.035745505 0.09099739 0.3571681 0.5455188 0.375 0.7271442 0.3928319 0.5455188 0.28564796 0.5 0.21429898 0.54537016 0.17862448 0.45462987 0.35709047 0.4545899 0.2857068 0.54536563 0.17863129 0.4545899 0.85710967 0.27267444 0.83571845 0.18192387 0.8214576 0.27267444 0.8214737 0.18190442 0.85708636 0.27255479 0.2857366 0.45464483 0.2857366 0.5453836 0.32138395 0.5226989 0.107193366 0.5455188 0.17854618 0.7271442 0.17854618 0.5455188 0.3213834 0.54528207 0.30951253 0.4546317 0.28577074 0.4546317 0.2857857 0.4546818 0.32139286 0.5453182 0.30713776 0.45464286 0.2857551 0.54535717 0.31546068 0.45466378 0.2857569 0.5453954 0.32140145 0.5453954 0.28576785 0.45463637 0.321375 0.5452727 0.32138285 0.52723783 0.28573716 0.45465022 0.28573716 0.5453847 0.28575 0.45463637</float_array>
<technique_common>
<accessor count="782" source="#Plane-tex-mesh-uvs-array" stride="2">
<param name="S" type="float"/>
<param name="T" type="float"/>
</accessor>
</technique_common>
</source>
<vertices id="Plane-tex-mesh-vertices">
<input semantic="POSITION" source="#Plane-tex-mesh-positions"/>
</vertices>
<polylist count="1468" material="lambert0-material">
<input offset="0" semantic="VERTEX" source="#Plane-tex-mesh-vertices"/>
<input offset="1" semantic="TEXCOORD" set="0" source="#Plane-tex-mesh-uvs"/>
<vcount>3 3 3 3 3 3 3 3 3 3 3 3 3 3 3 3 3 3 3 3 3 3 3 3 3 3 3 3 3 3 3 3 3 3 3 3 3 3 3 3 3 3 3 3 3 3 3 3 3 3 3 3 3 3 3 3 3 3 3 3 3 3 3 3 3 3 3 3 3 3 3 3 3 3 3 3 3 3 3 3 3 3 3 3 3 3 3 3 3 3 3 3 3 3 3 3 3 3 3 3 3 3 3 3 3 3 3 3 3 3 3 3 3 3 3 3 3 3 3 3 3 3 3 3 3 3 3 3 3 3 3 3 3 3 3 3 3 3 3 3 3 3 3 3 3 3 3 3 3 3 3 3 3 3 3 3 3 3 3 3 3 3 3 3 3 3 3 3 3 3 3 3 3 3 3 3 3 3 3 3 3 3 3 3 3 3 3 3 3 3 3 3 3 3 3 3 3 3 3 3 3 3 3 3 3 3 3 3 3 3 3 3 3 3 3 3 3 3 3 3 3 3 3 3 3 3 3 3 3 3 3 3 3 3 3 3 3 3 3 3 3 3 3 3 3 3 3 3 3 3 3 3 3 3 3 3 3 3 3 3 3 3 3 3 3 3 3 3 3 3 3 3 3 3 3 3 3 3 3 3 3 3 3 3 3 3 3 3 3 3 3 3 3 3 3 3 3 3 3 3 3 3 3 3 3 3 3 3 3 3 3 3 3 3 3 3 3 3 3 3 3 3 3 3 3 3 3 3 3 3 3 3 3 3 3 3 3 3 3 3 3 3 3 3 3 3 3 3 3 3 3 3 3 3 3 3 3 3 3 3 3 3 3 3 3 3 3 3 3 3 3 3 3 3 3 3 3 3 3 3 3 3 3 3 3 3 3 3 3 3 3 3 3 3 3 3 3 3 3 3 3 3 3 3 3 3 3 3 3 3 3 3 3 3 3 3 3 3 3 3 3 3 3 3 3 3 3 3 3 3 3 3 3 3 3 3 3 3 3 3 3 3 3 3 3 3 3 3 3 3 3 3 3 3 3 3 3 3 3 3 3 3 3 3 3 3 3 3 3 3 3 3 3 3 3 3 3 3 3 3 3 3 3 3 3 3 3 3 3 3 3 3 3 3 3 3 3 3 3 3 3 3 3 3 3 3 3 3 3 3 3 3 3 3 3 3 3 3 3 3 3 3 3 3 3 3 3 3 3 3 3 3 3 3 3 3 3 3 3 3 3 3 3 3 3 3 3 3 3 3 3 3 3 3 3 3 3 3 3 3 3 3 3 3 3 3 3 3 3 3 3 3 3 3 3 3 3 3 3 3 3 3 3 3 3 3 3 3 3 3 3 3 3 3 3 3 3 3 3 3 3 3 3 3 3 3 3 3 3 3 3 3 3 3 3 3 3 3 3 3 3 3 3 3 3 3 3 3 3 3 3 3 3 3 3 3 3 3 3 3 3 3 3 3 3 3 3 3 3 3 3 3 3 3 3 3 3 3 3 3 3 3 3 3 3 3 3 3 3 3 3 3 3 3 3 3 3 3 3 3 3 3 3 3 3 3 3 3 3 3 3 3 3 3 3 3 3 3 3 3 3 3 3 3 3 3 3 3 3 3 3 3 3 3 3 3 3 3 3 3 3 3 3 3 3 3 3 3 3 3 3 3 3 3 3 3 3 3 3 3 3 3 3 3 3 3 3 3 3 3 3 3 3 3 3 3 3 3 3 3 3 3 3 3 3 3 3 3 3 3 3 3 3 3 3 3 3 3 3 3 3 3 3 3 3 3 3 3 3 3 3 3 3 3 3 3 3 3 3 3 3 3 3 3 3 3 3 3 3 3 3 3 3 3 3 3 3 3 3 3 3 3 3 3 3 3 3 3 3 3 3 3 3 3 3 3 3 3 3 3 3 3 3 3 3 3 3 3 3 3 3 3 3 3 3 3 3 3 3 3 3 3 3 3 3 3 3 3 3 3 3 3 3 3 3 3 3 3 3 3 3 3 3 3 3 3 3 3 3 3 3 3 3 3 3 3 3 3 3 3 3 3 3 3 3 3 3 3 3 3 3 3 3 3 3 3 3 3 3 3 3 3 3 3 3 3 3 3 3 3 3 3 3 3 3 3 3 3 3 3 3 3 3 3 3 3 3 3 3 3 3 3 3 3 3 3 3 3 3 3 3 3 3 3 3 3 3 3 3 3 3 3 3 3 3 3 3 3 3 3 3 3 3 3 3 3 3 3 3 3 3 3 3 3 3 3 3 3 3 3 3 3 3 3 3 3 3 3 3 3 3 3 3 3 3 3 3 3 3 3 3 3 3 3 3 3 3 3 3 3 3 3 3 3 3 3 3 3 3 3 3 3 3 3 3 3 3 3 3 3 3 3 3 3 3 3 3 3 3 3 3 3 3 3 3 3 3 3 3 3 3 3 3 3 3 3 3 3 3 3 3 3 3 3 3 3 3 3 3 3 3 3 3 3 3 3 3 3 3 3 3 3 3 3 3 3 3 3 3 3 3 3 3 3 3 3 3 3 3 3 3 3 3 3 3 3 3 3 3 3 3 3 3 3 3 3 3 3 3 3 3 3 3 3 3 3 3 3 3 3 3 3 3 3 3 3 3 3 3 3 3 3 3 3 3 3 3 3 3 3 3 3 3 3 3 3 3 3 3 3 3 3 3 3 3 3 3 3 3 3 3 3 3 3 3 3 3 3 3 3 3 3 3 3 3 3 3 3 3 3 3 3 3 3 3 3 3 3 3 3 3 3 3 3 3 3 3 3 3 3 3 3 3 3 3 3 3 3 3 3 3 3 3 3 3 3 3 3 3 3 3 3 3 3 3 3 3 3 3 3 3 3 3 3 3 3 3 3 3 3 3 3 3 3 3 3 3 3 3 3 3 3 3 3 3 3 3 3 3 3 3 3 3 3 3 3 3 3 3 3 3 3 3 3 3 3 3 3 3 3 3 3 3 3 3 3 3 3 3 3 3 3 3 3 3 3 3 3 3 3 3 3 3 3 3 3 3 3 3 3 3 3 3 3 3 3 3 3 3 3 3 3 3 3 3 3 3 3 3 3 3 3 3 3 3 3 3 3 3 3 3 3 3 3 3 3 3 3 3 3 3 3 3 3 3 3 3 3 3 3 3 3 3 3 3 3 3 3 3 3 3 3 3 3 3 3 3 3 3 3 3 3 3 3 3 3 3 3 3 3 3 3 3 3 3 3 3 3 3 3 3 3 3 3 3 3 3 3 3 3 3 3 3 3 3 3 3 3 3 3 3 3 3 3 3 3 3 3 3 3 3 3 3 3 3 3 3 3</vcount>
<p>0 0 1 1 2 2 0 3 3 4 1 5 4 6 5 7 6 8 4 9 7 10 5 11 8 12 9 13 10 14 8 15 11 16 9 17 9 18 12 19 13 20 12 21 14 22 13 23 9 3 15 4 12 5 12 0 16 1 14 2 17 24 14 25 16 26 12 3 18 4 16 5 17 27 16 28 19 29 16 30 20 31 19 32 21 33 22 34 23 35 21 36 24 37 22 38 25 33 26 34 27 35 25 36 28 37 26 38 26 39 29 40 30 41 29 42 31 43 30 44 26 36 32 37 29 38 29 36 33 37 31 38 34 45 35 46 36 47 34 48 37 49 35 50 38 6 39 7 40 8 38 9 41 10 39 11 42 12 43 13 44 14 42 15 45 16 43 17 46 0 47 1 48 2 46 3 49 4 47 5 50 6 51 7 52 8 50 9 53 10 51 11 54 33 55 34 56 35 54 36 57 37 55 38 58 33 59 34 60 35 58 36 61 37 59 38 62 51 63 52 56 53 64 54 62 55 56 56 62 39 64 40 65 41 66 57 65 58 64 59 67 36 62 37 65 38 66 60 64 61 68 62 67 33 65 34 69 35 68 63 64 64 70 65 64 36 71 37 70 38 68 51 70 52 72 53 73 54 68 55 72 56 68 33 73 34 74 35 75 33 76 34 77 35 75 36 78 37 76 38 79 33 80 34 81 35 79 36 82 37 80 38 83 33 84 34 85 35 83 36 86 37 84 38 87 0 88 1 89 2 87 3 90 4 88 5 91 12 92 13 93 14 91 15 89 16 92 17 94 6 95 7 96 8 94 9 97 10 95 11 98 0 99 1 100 2 100 9 99 10 101 11 98 66 102 67 99 68 100 6 101 7 103 8 102 21 104 22 99 23 105 9 100 10 103 11 105 69 103 70 106 71 103 72 107 73 106 74 107 75 108 76 106 77 107 3 109 4 108 5 110 0 111 1 112 2 110 3 113 4 111 5 111 78 114 79 115 80 111 81 116 82 114 83 117 84 118 85 119 86 118 87 120 88 119 89 117 90 121 91 118 92 121 93 122 94 118 95 122 33 123 34 124 35 122 36 125 37 123 38 126 33 127 34 128 35 126 36 129 37 127 38 130 0 131 1 132 2 132 3 131 4 133 5 130 3 134 4 131 5 133 96 131 97 135 98 136 99 132 100 133 101 133 102 135 103 137 104 136 96 138 97 132 98 135 105 139 106 137 107 133 3 137 4 140 5 139 108 141 109 137 110 133 0 140 1 142 2 141 111 143 112 137 113 141 114 144 115 143 116 145 0 144 1 141 2 145 117 146 118 144 119 146 21 147 22 144 23 148 120 149 121 150 122 148 123 136 124 149 125 151 126 152 127 153 128 152 129 154 130 153 131 151 132 155 133 152 134 155 0 156 1 152 2 155 3 157 4 156 5 158 0 159 1 160 2 158 3 161 4 159 5 162 0 163 1 164 2 162 3 165 4 163 5 166 135 167 136 168 137 169 51 168 52 167 53 166 138 170 139 167 140 171 54 169 55 167 56 168 141 169 142 172 143 169 33 171 34 173 35 174 144 168 145 172 146 174 33 172 34 175 35 175 36 172 37 176 38 175 33 176 34 177 35 178 96 179 97 180 98 181 147 178 148 180 149 180 150 182 151 181 152 183 153 178 154 181 155 183 156 181 157 184 158 181 159 185 160 184 161 186 162 187 163 188 164 187 165 189 166 188 167 186 9 190 10 187 11 189 168 187 169 191 170 192 171 189 172 191 173 192 174 191 175 193 176 189 177 192 178 194 179 191 96 195 97 193 98 196 33 197 34 198 35 196 36 199 37 197 38 200 33 201 34 202 35 200 36 203 37 201 38 204 33 205 34 206 35 204 36 207 37 205 38 208 33 209 34 210 35 208 36 211 37 209 38 212 69 213 70 214 71 213 72 215 73 214 74 212 180 216 181 213 182 215 183 217 184 214 185 216 186 218 187 213 188 215 189 219 190 217 191 218 192 216 193 217 194 219 195 218 196 217 197 220 51 221 52 222 53 223 54 220 55 222 56 224 198 220 199 223 200 224 51 225 52 220 53 226 33 227 34 228 35 226 36 229 37 227 38 230 33 231 34 232 35 230 36 233 37 231 38 234 33 235 34 236 35 234 36 237 37 235 38 238 12 239 13 240 14 238 15 241 16 239 17 242 33 243 34 244 35 242 36 245 37 243 38 246 33 247 34 248 35 246 36 249 37 247 38 250 33 251 34 252 35 250 36 253 37 251 38 254 33 255 34 256 35 254 36 257 37 255 38 258 201 259 202 260 203 258 204 261 205 259 206 262 33 263 34 264 35 262 36 265 37 263 38 266 207 267 208 268 209 267 141 269 142 268 143 266 210 270 211 267 212 270 87 271 88 267 89 272 33 273 34 274 35 272 36 275 37 273 38 276 33 277 34 278 35 276 36 279 37 277 38 280 0 281 1 282 2 280 66 283 67 281 68 283 21 284 22 281 23 281 3 284 4 285 5 281 0 285 1 286 2 287 0 288 1 289 2 287 3 290 4 288 5 291 33 292 34 293 35 291 36 294 37 292 38 295 0 296 1 297 2 295 3 298 4 296 5 299 0 300 1 301 2 299 3 302 4 300 5 303 33 304 34 305 35 303 36 306 37 304 38 307 39 308 40 309 41 308 199 310 200 309 198 307 36 311 37 308 38 308 36 312 37 310 38 313 213 314 214 315 215 313 216 316 217 314 218 317 51 318 52 319 53 320 219 317 220 319 221 317 33 320 34 321 35 322 51 323 52 324 53 325 54 322 55 324 56 322 33 325 34 326 35 327 33 328 34 329 35 327 36 330 37 328 38 331 33 332 34 333 35 331 36 334 37 332 38 335 6 336 7 337 8 335 9 338 10 336 11 339 12 340 13 341 14 339 15 342 16 340 17 340 12 343 13 344 14 340 15 345 16 343 17 346 6 347 7 348 8 346 9 349 10 347 11 350 33 351 34 352 35 350 36 353 37 351 38 354 33 355 34 356 35 356 36 355 37 357 38 354 222 352 223 355 224 358 225 356 226 357 227 352 141 359 142 355 143 358 51 360 52 356 53 361 228 362 229 363 230 361 81 364 82 362 83 365 33 366 34 367 35 365 36 368 37 366 38 370 1 369 0 371 2 372 4 369 3 370 5 374 13 373 12 375 14 376 16 373 15 374 17 378 34 377 33 379 35 380 37 377 36 378 38 382 232 381 231 383 233 384 65 382 234 383 235 385 37 381 36 382 38 386 142 384 141 383 143 387 34 382 33 384 35 388 37 382 36 387 38 367 34 389 33 390 35 365 37 389 36 367 38 8 1 391 0 392 2 393 4 391 3 8 5 395 136 394 135 396 137 397 139 394 138 395 140 399 34 398 33 400 35 401 37 398 36 399 38 403 34 402 33 404 35 405 37 402 36 403 38 407 1 406 0 408 2 407 4 408 3 409 5 38 67 406 66 407 68 409 1 408 0 410 2 40 22 38 21 407 23 412 1 411 0 413 2 414 4 411 3 412 5 416 34 415 33 417 35 418 37 415 36 416 38 420 45 419 46 421 47 422 49 419 50 420 48 423 1 420 0 424 2 425 4 420 3 423 5 427 34 426 33 428 35 429 37 426 36 427 38 431 40 430 39 432 41 433 43 431 42 432 44 434 37 430 36 431 38 435 37 431 36 433 38 210 34 436 33 437 35 208 37 436 36 210 38 439 34 438 33 440 35 198 37 438 36 439 38 442 34 441 33 443 35 444 37 441 36 442 38 446 34 445 33 447 35 446 237 447 236 448 238 449 37 445 36 446 38 450 205 446 204 448 206 447 240 451 239 448 241 452 243 451 242 447 244 454 93 453 95 455 94 456 246 453 245 454 247 458 34 457 33 459 35 460 37 457 36 458 38 462 1 461 0 463 2 464 4 461 3 462 5 466 34 465 33 467 35 468 37 465 36 466 38 470 249 469 248 471 250 472 252 470 251 471 253 473 255 469 254 470 256 474 258 472 257 471 259 475 261 473 260 470 262 476 264 472 263 474 265 473 267 475 266 474 268 475 270 476 269 474 271 478 1 477 0 479 2 480 4 477 3 478 5 482 34 481 33 483 35 484 37 481 36 482 38 486 34 485 33 487 35 483 37 485 36 486 38 489 1 488 0 490 2 489 4 490 3 491 5 492 4 488 3 489 5 493 1 489 0 491 2 490 273 494 272 491 274 495 4 489 3 493 5 496 276 491 275 494 277 497 279 494 278 490 280 496 282 494 281 498 283 499 205 496 204 498 206 500 285 498 284 494 286 501 288 500 287 494 289 501 291 502 290 500 292 503 294 502 293 501 295 502 147 503 296 504 297 503 299 505 298 504 300 506 4 505 3 503 5 508 34 507 33 509 35 510 37 507 36 508 38 512 40 511 39 513 41 514 142 512 141 513 143 515 223 511 222 512 224 516 142 515 141 512 143 517 34 516 33 518 35 519 37 516 36 517 38 521 34 520 33 522 35 523 37 520 36 521 38 524 34 517 33 525 35 526 37 517 36 524 38 528 34 527 33 529 35 513 37 527 36 528 38 531 97 530 96 532 98 530 302 533 301 532 124 530 304 534 303 533 305 535 279 534 278 530 280 537 1 536 0 538 2 539 4 536 3 537 5 540 1 537 0 541 2 542 4 537 3 540 5 544 45 543 46 545 47 546 49 543 50 544 48 547 7 544 6 548 8 549 10 544 9 547 11 551 202 550 201 552 203 553 205 550 204 551 206 555 1 554 0 556 2 557 4 554 3 555 5 559 34 558 33 560 35 561 307 558 306 559 308 561 310 559 309 562 311 563 313 561 312 562 314 562 202 559 201 564 203 563 223 562 222 565 224 566 200 563 199 565 198 565 34 562 33 567 35 565 52 568 51 566 53 569 37 563 36 566 38 566 226 568 225 570 227 571 37 566 36 570 38 573 202 572 201 574 203 573 37 574 36 575 38 576 205 572 204 573 206 574 199 275 198 575 200 577 52 275 51 574 53 579 1 578 0 290 2 580 4 578 3 579 5 582 97 581 96 583 98 581 315 584 29 583 316 581 318 585 317 584 319 586 22 584 21 585 23 587 97 585 96 581 98 588 7 584 6 586 8 588 4 586 3 589 5 590 10 584 9 588 11 588 97 589 96 591 98 589 1 586 0 592 2 589 321 593 320 591 322 593 1 589 0 594 2 595 1 593 0 596 2 593 324 595 323 597 325 598 327 593 326 597 328 597 37 595 36 599 38 600 330 598 329 597 331 599 34 595 33 601 35 598 332 600 58 602 330 599 37 601 36 603 38 598 56 602 55 604 54 602 34 600 33 605 35 606 34 599 33 603 35 603 34 601 33 607 35 604 334 602 333 608 335 606 139 603 138 609 140 610 223 599 222 606 224 601 37 611 36 607 38 612 200 604 199 608 198 609 136 603 135 613 137 614 142 610 141 606 143 607 34 611 33 615 35 616 37 604 36 612 38 618 34 617 33 619 35 620 37 617 36 618 38 301 13 621 12 622 14 299 16 621 15 301 17 624 337 623 336 625 338 626 340 623 339 624 341 628 34 627 33 629 35 630 37 627 36 628 38 632 34 631 33 633 35 634 37 631 36 632 38 636 34 635 33 637 35 638 37 635 36 636 38 640 7 639 6 641 8 642 10 639 9 640 11 644 1 643 0 645 2 646 4 643 3 644 5 648 13 647 12 649 14 650 16 647 15 648 17 651 13 648 12 652 14 653 16 648 15 651 17 655 7 654 6 656 8 657 10 654 9 655 11 659 97 658 96 660 98 658 321 661 320 660 322 658 343 662 342 661 344 663 97 662 96 658 98 665 34 664 33 319 35 666 37 664 36 665 38 668 34 667 33 669 35 670 37 667 36 668 38 672 34 671 33 673 35 672 37 673 36 674 38 675 346 671 345 672 347 673 226 676 225 674 227 677 230 675 229 672 228 678 52 676 51 673 53 680 1 679 0 681 2 682 4 679 3 680 5 684 1 683 0 685 2 686 4 683 3 684 5 688 163 687 162 689 164 690 166 688 165 689 167 685 349 687 348 688 350 691 166 685 165 688 167 693 1 692 0 694 2 695 4 692 3 693 5 696 352 693 351 697 128 698 133 693 132 696 134 700 7 699 6 701 8 702 10 699 9 700 11 704 1 703 0 705 2 706 4 703 3 704 5 708 52 707 51 709 53 707 55 710 54 709 56 710 200 707 199 711 198 707 223 712 222 711 224 711 34 712 33 713 35 711 37 713 36 714 38 713 226 715 225 714 227 716 52 715 51 713 53 718 34 717 33 719 35 720 37 717 36 718 38 722 34 721 33 723 35 724 37 721 36 722 38 726 34 725 33 727 35 728 37 725 36 726 38 259 202 451 201 260 203 448 205 451 204 259 206 182 7 151 6 181 8 155 10 151 9 182 11 476 1 463 0 472 2 462 4 463 3 476 5 549 7 504 6 544 8 502 10 504 9 549 11 590 7 545 6 584 8 544 10 545 9 590 11 43 13 375 12 44 14 374 16 375 15 43 17 149 7 107 6 150 8 109 354 107 353 149 154 158 22 109 21 149 23 149 356 188 355 158 357 158 359 188 358 189 360 161 10 158 9 189 11 494 13 471 12 501 14 474 16 471 15 494 17 499 1 479 0 496 2 478 67 479 66 499 68 478 322 499 321 553 320 553 1 499 0 550 2 591 7 548 6 588 8 547 10 548 9 591 11 585 97 690 96 586 98 690 321 46 320 586 322 690 362 106 361 46 363 108 365 46 364 106 366 689 356 106 355 690 357 46 97 108 96 49 98 108 321 159 320 49 322 159 1 108 0 160 2 156 1 424 0 152 2 423 4 424 3 156 5 239 13 215 12 240 14 219 16 215 15 239 17 557 202 500 201 554 203 498 368 500 367 557 369 552 371 498 370 557 372 552 374 557 373 625 375 551 205 552 204 625 206 625 377 557 376 663 378 658 379 625 378 663 380 663 382 557 381 699 383 624 4 625 3 658 5 702 22 663 21 699 23 706 1 592 0 703 2 589 4 592 3 706 5 50 19 346 18 165 20 153 22 50 21 165 23 349 4 346 3 50 5 153 4 165 3 185 5 154 13 50 12 153 14 185 104 165 103 184 102 53 16 50 15 154 17 184 385 165 384 192 386 184 10 192 9 217 11 162 388 192 387 165 389 217 7 192 6 214 8 192 1 162 0 194 2 556 0 593 2 598 1 555 391 556 390 598 392 555 176 598 175 701 174 701 19 598 18 57 20 348 394 701 393 57 395 348 322 57 321 163 320 347 7 701 6 348 8 113 397 163 396 57 398 700 10 701 9 347 11 54 97 113 96 57 98 113 400 164 399 163 401 350 1 700 0 347 2 110 97 164 96 113 98 350 4 347 3 17 5 708 4 700 3 350 5 350 97 17 96 353 98 17 403 347 402 52 404 708 1 662 0 700 2 353 103 17 102 19 104 51 166 17 165 52 167 661 406 662 405 708 407 709 408 353 397 19 409 709 411 661 410 708 412 661 414 709 413 19 415 594 97 704 96 593 98 704 321 47 320 593 322 704 103 48 102 47 104 705 97 48 96 704 98 63 417 596 416 112 418 111 420 63 419 112 421 595 4 596 3 63 5 56 4 63 3 111 5 630 34 605 33 627 35 602 37 605 36 630 38 359 34 711 33 355 35 710 223 711 222 359 224 710 221 359 220 59 219 59 34 359 33 60 35 610 34 509 33 599 35 508 37 509 36 610 38 357 34 715 33 358 35 714 37 715 36 357 38 396 423 71 422 395 424 71 426 114 425 395 427 71 429 115 428 114 430 64 423 115 422 71 424 670 34 629 33 667 35 628 37 629 36 670 38 65 34 21 33 69 35 24 37 21 36 65 38 304 34 615 33 305 35 607 37 615 36 304 38 676 431 452 432 268 433 452 434 455 435 268 436 676 437 268 438 637 439 455 440 452 441 454 442 268 443 619 444 637 445 637 370 674 371 676 372 452 446 447 447 454 448 619 370 636 371 637 372 268 449 274 450 619 451 447 452 459 453 454 454 274 455 618 456 619 457 268 204 269 205 274 206 454 458 459 459 467 460 447 370 458 371 459 372 274 204 273 205 618 206 459 370 466 371 467 372 454 461 467 435 487 462 467 370 486 371 487 372 454 463 487 464 529 465 487 370 528 371 529 372 263 242 446 243 450 244 263 466 450 467 521 468 277 469 521 470 450 471 521 472 522 451 263 473 722 451 277 474 450 475 263 476 522 477 524 478 722 479 450 480 261 481 292 482 277 483 722 484 524 204 522 205 570 206 264 485 263 486 524 487 366 488 722 489 261 490 722 472 723 451 292 473 292 242 278 243 277 244 568 203 524 201 570 202 264 201 524 202 525 203 261 491 442 492 366 493 292 201 723 202 726 203 366 494 442 495 31 496 243 497 442 498 261 499 726 204 723 205 367 206 726 500 310 501 292 502 433 503 31 504 442 505 366 244 31 242 367 243 244 506 243 507 261 508 726 201 367 202 390 203 310 242 293 243 292 244 310 455 726 456 727 457 433 201 442 202 443 203 433 509 80 510 31 511 247 512 244 513 261 514 727 451 314 497 310 515 80 242 30 243 31 244 432 478 80 476 433 477 248 516 247 517 261 518 247 457 223 455 244 456 314 242 309 243 310 244 314 201 727 202 718 203 432 242 81 243 80 244 251 519 248 520 261 521 223 522 228 483 244 523 247 242 224 243 223 244 718 204 727 205 386 206 315 204 314 205 718 206 251 524 261 525 258 526 232 527 248 528 251 529 228 204 227 205 244 206 202 201 228 202 223 203 718 201 386 202 383 203 315 201 718 202 719 203 258 530 252 531 251 532 440 533 232 435 251 534 232 204 231 205 248 206 202 204 201 205 228 206 258 535 255 483 252 536 173 537 440 538 251 539 255 540 235 541 252 542 258 543 256 282 255 544 173 485 171 486 440 487 252 545 235 497 209 546 255 242 236 243 235 244 437 533 256 435 258 534 171 370 439 371 440 372 235 242 210 243 209 244 209 522 206 483 252 523 85 547 437 548 258 549 206 204 205 205 252 206 177 201 206 202 209 203 85 550 84 551 437 552 177 204 176 205 206 206 84 553 128 554 437 555 128 455 210 456 437 457 84 204 417 205 128 206 128 204 127 205 210 206 363 455 417 456 84 457 326 537 363 538 84 539 417 487 363 485 362 486 326 204 325 205 363 206 417 478 362 476 416 477 416 556 362 557 328 483 362 242 329 243 328 244 416 558 328 559 320 560 328 242 321 243 320 244 333 201 403 202 404 203 333 204 332 205 403 206 639 6 338 7 335 8 639 561 679 562 338 563 338 564 679 565 3 566 639 9 642 10 679 11 679 3 682 4 3 5 338 0 3 1 0 2 505 0 290 1 287 2 505 567 535 319 290 411 535 568 579 569 290 570 505 3 506 4 535 5 535 3 530 4 579 5 284 96 536 97 539 98 302 320 284 321 539 322 284 0 302 1 299 2 282 162 621 163 645 164 621 165 644 166 645 167 282 9 281 10 621 11 621 12 647 13 644 14 339 571 644 572 647 573 621 15 299 16 647 17 339 574 647 575 342 576 647 15 650 16 342 17 297 577 6 578 38 579 6 580 41 581 38 582 297 9 296 10 6 11 6 348 5 349 41 350 5 165 36 166 41 167 91 571 41 572 36 573 91 259 36 257 89 258 36 15 35 16 89 17 391 18 411 19 88 20 88 397 411 318 146 583 391 3 393 4 411 5 411 3 414 4 146 5 145 99 88 100 146 101 145 96 89 97 88 98 406 0 134 1 130 2 406 3 38 4 134 5 532 96 488 97 492 98 283 320 532 321 492 322 280 2 532 0 283 1 531 3 532 4 280 5 580 2 531 0 280 1 640 584 580 585 280 586 280 170 643 169 640 168 580 587 640 588 641 589 640 9 643 10 680 11 298 154 580 590 641 591 680 96 643 97 646 98 640 6 680 7 681 8 298 69 641 70 4 71 298 592 578 593 580 594 646 595 1 596 680 597 641 72 337 73 4 74 578 0 298 1 295 2 90 598 1 599 646 600 337 580 7 581 4 582 37 397 1 408 90 409 7 350 337 348 336 349 37 0 90 1 87 2 2 3 1 4 37 5 336 165 2 166 7 167 34 77 2 75 37 76 34 355 7 356 2 357 289 6 40 7 407 8 289 9 288 10 40 11 286 6 301 7 622 8 286 9 285 10 301 11 301 12 648 13 649 14 301 15 300 16 648 17 648 12 345 13 340 14 648 15 653 16 345 17 372 96 683 97 686 98 408 415 372 413 686 414 369 601 372 318 408 602 369 603 408 604 98 27 408 21 102 22 98 23 341 6 8 7 392 8 341 605 340 606 8 607 340 129 11 130 8 131 40 6 97 7 94 8 40 348 39 349 97 350 39 165 93 166 97 167 139 571 97 572 93 573 139 608 93 609 141 610 93 15 92 16 141 17 147 96 419 97 422 98 180 320 147 321 422 322 179 102 147 103 180 104 179 96 144 97 147 98 469 12 497 13 503 14 534 96 503 97 497 98 469 15 473 16 497 17 534 611 497 612 533 613 497 3 490 4 533 5 489 0 537 1 538 2 489 3 495 4 537 5 537 0 651 1 652 2 537 3 542 4 651 5 583 96 543 97 546 98 546 614 684 615 583 616 582 3 583 4 684 5 409 617 684 618 546 619 582 0 684 1 685 2 684 0 409 1 410 2 687 69 371 70 105 71 371 165 100 166 105 167 687 348 685 349 371 350 685 165 370 166 371 167 344 0 15 1 9 2 344 3 343 4 15 5 10 0 412 1 413 2 10 3 9 4 412 5 96 0 135 1 131 2 96 3 95 4 135 5 99 0 132 1 138 2 99 3 104 4 132 5 461 0 475 1 470 2 461 3 464 4 475 5 692 0 18 1 12 2 692 3 695 4 18 5 373 12 45 13 42 14 373 15 376 16 45 17 103 0 136 1 148 2 103 3 101 4 136 5 137 0 193 1 195 2 137 620 143 621 193 622 143 384 183 385 193 386 193 9 183 10 216 11 143 21 178 22 183 23 193 6 216 7 212 8 136 6 190 7 186 8 136 9 133 10 190 11 477 0 493 1 491 2 477 66 480 67 493 68 493 321 480 322 540 320 493 0 540 1 541 2 587 0 691 1 688 2 587 3 581 4 691 5 654 6 693 7 694 8 654 9 657 10 693 11 693 6 20 7 16 8 693 9 698 10 20 11 13 6 420 7 421 8 13 9 14 10 420 11 420 0 157 1 155 2 420 3 425 4 157 5 142 121 191 120 187 122 142 125 140 124 191 123 213 12 241 13 238 14 213 15 218 16 241 17 623 12 655 13 656 14 623 15 626 16 655 17 659 0 696 1 697 2 659 3 660 4 696 5 507 33 600 34 597 35 507 36 510 37 600 38 712 33 352 34 354 35 712 36 707 37 352 38 352 33 61 34 58 35 352 36 351 37 61 38 55 422 394 423 397 424 116 623 55 624 397 625 111 626 55 627 116 628 111 422 56 423 55 424 716 33 356 34 360 35 716 36 713 37 356 38 377 33 62 34 67 35 377 36 380 37 62 38 611 33 306 34 303 35 611 36 601 37 306 38 664 33 378 34 379 35 664 36 666 37 378 38 604 33 316 34 313 35 604 36 616 37 316 38 398 33 72 34 70 35 398 36 401 37 72 38 572 201 603 202 607 203 572 204 576 205 603 206 558 33 614 34 606 35 614 629 558 630 608 631 558 632 561 633 608 634 614 138 608 139 668 140 561 87 612 88 608 89 614 135 668 136 669 137 717 33 399 34 400 35 717 36 720 37 399 38 66 635 121 636 117 637 66 638 68 639 121 640 511 33 560 34 573 35 573 36 560 37 609 38 511 222 515 223 560 224 573 33 609 34 613 35 515 141 559 142 560 143 634 51 577 52 574 53 665 641 634 642 574 643 634 33 665 34 319 35 631 36 634 37 319 38 631 33 319 34 318 35 381 33 28 34 25 35 381 36 385 37 28 38 23 33 78 34 75 35 23 36 22 37 78 38 74 33 125 34 122 35 74 36 73 37 125 38 118 135 170 136 166 137 118 138 122 139 170 140 453 644 270 645 266 646 453 647 456 648 270 649 481 33 516 34 512 35 481 36 484 37 516 38 516 33 562 34 564 35 516 36 519 37 562 38 563 33 311 34 307 35 563 36 569 37 311 38 617 39 633 40 675 41 633 141 317 142 675 143 617 222 620 223 633 224 675 36 317 37 330 38 620 141 632 142 633 143 675 33 330 34 327 35 675 229 327 230 324 228 324 138 327 139 364 140 671 345 675 346 324 347 324 135 364 136 361 137 671 33 324 34 323 35 382 33 32 34 26 35 382 36 388 37 32 38 27 33 82 34 79 35 27 36 26 37 82 38 77 33 119 34 429 35 429 650 119 651 168 652 77 36 76 37 119 38 119 36 120 37 168 38 174 44 429 42 168 43 174 51 426 52 429 53 124 33 430 34 167 35 167 36 430 37 199 38 124 36 123 37 430 38 199 51 430 52 434 53 167 33 199 34 196 35 222 54 199 55 434 56 199 33 222 34 221 35 460 51 445 52 449 53 265 641 460 642 449 643 460 199 265 200 262 198 457 222 460 223 262 224 457 33 262 34 468 35 482 51 468 52 262 53 517 54 482 55 262 56 465 36 468 37 482 38 482 33 517 34 518 35 465 33 482 34 483 35 485 33 514 34 513 35 485 36 483 37 514 38 267 39 527 40 272 41 527 141 275 142 272 143 267 36 271 37 527 38 527 33 575 34 275 35 527 36 513 37 575 38 520 33 276 34 571 35 571 36 276 37 294 38 520 222 523 223 276 224 571 33 294 34 291 35 523 141 279 142 276 143 566 36 571 37 291 38 566 39 291 40 308 41 291 141 312 142 308 143 517 33 565 34 567 35 517 36 526 37 565 38 635 33 677 34 672 35 635 36 638 37 677 38 678 33 334 34 331 35 678 222 673 223 334 224 673 141 322 142 334 143 405 51 334 52 322 53 86 641 405 642 322 643 83 198 405 199 86 200 83 51 402 52 405 53 721 33 368 34 365 35 721 36 724 37 368 38 725 33 387 34 384 35 725 222 728 223 387 224 728 141 389 142 387 143 29 51 387 52 389 53 29 198 389 199 33 200 389 36 365 37 33 38 415 33 129 34 126 35 415 144 418 145 129 146 418 329 428 330 129 331 129 36 428 37 175 38 418 141 427 142 428 143 129 39 175 40 208 41 175 141 211 142 208 143 431 33 203 34 200 35 431 222 435 223 203 224 435 141 441 142 203 143 203 36 441 37 229 38 229 51 441 52 444 53 203 33 229 34 226 35 245 54 229 55 444 56 229 33 245 34 242 35 172 33 207 34 204 35 172 222 169 223 207 224 207 220 169 221 253 219 207 33 253 34 250 35 438 33 233 34 230 35 438 222 198 223 233 224 198 141 225 142 233 143 233 36 225 37 249 38 198 33 220 34 225 35 233 33 249 34 246 35 198 36 197 37 220 38 436 39 234 40 254 41 234 141 257 142 254 143 436 222 208 223 234 224 208 141 237 142 234 143 467 33 483 34 486 35 467 36 465 37 483 38 483 33 512 34 514 35 483 36 481 37 512 38 560 33 606 34 609 35 560 36 558 37 606 38 5 6 34 7 36 8 5 9 7 10 34 11 192 6 212 7 214 8 192 9 193 10 212 11 463 0 470 1 472 2 463 3 461 4 470 5 487 33 513 34 528 35 487 36 485 37 513 38 509 33 597 34 599 35 509 36 507 37 597 38 513 33 573 34 575 35 513 36 511 37 573 38 641 6 335 7 337 8 641 9 639 10 335 11 39 12 91 13 93 14 39 15 41 16 91 17 120 135 166 136 168 137 120 138 118 139 166 140 140 0 195 1 191 2 140 3 137 4 195 5 471 12 503 13 501 14 471 15 469 16 503 17 574 537 607 538 665 539 607 533 304 435 665 534 574 204 572 205 607 206 304 653 666 654 665 655 304 36 306 37 666 38 595 59 666 57 306 58 306 51 601 52 595 53 380 330 666 58 595 332 380 642 595 643 63 641 666 33 380 34 378 35 380 33 63 34 62 35 296 6 4 7 6 8 296 9 298 10 4 11 22 201 66 202 78 203 78 204 66 205 117 206 22 656 24 657 66 658 119 86 78 85 117 84 24 141 65 142 66 143 119 422 76 423 78 424 95 12 139 13 135 14 95 15 97 16 139 17 205 33 250 34 252 35 205 36 207 37 250 38 500 201 547 202 554 203 554 3 547 4 591 5 500 659 502 660 547 661 593 102 554 103 591 104 502 165 549 166 547 167 593 96 556 97 554 98 618 51 273 52 275 53 618 198 275 199 620 200 275 222 577 223 620 224 620 55 577 56 634 54 620 33 634 34 632 35 288 662 297 663 40 664 297 165 38 166 40 167 288 9 290 10 297 11 290 0 295 1 297 2 290 3 578 4 295 5 596 416 47 417 112 418 47 21 110 22 112 23 596 3 593 4 47 5 110 96 47 97 49 98 162 411 110 397 49 665 49 21 159 22 162 23 110 0 162 1 164 2 194 96 162 97 159 98 194 354 159 154 189 353 159 9 161 10 189 11 615 33 303 34 305 35 615 36 611 37 303 38 320 33 418 34 416 35 320 666 23 667 418 668 23 329 77 330 418 331 320 36 319 37 23 38 418 36 77 37 429 38 23 141 75 142 77 143 319 33 21 34 23 35 418 33 429 34 427 35 319 669 379 670 21 671 21 58 379 651 67 672 319 36 664 37 379 38 379 36 377 37 67 38 21 33 67 34 69 35 176 33 204 34 206 35 176 36 172 37 204 38 269 33 272 34 274 35 269 36 267 37 272 38 504 45 546 46 544 47 504 673 505 674 546 675 546 564 505 566 289 565 505 21 287 22 289 23 546 676 289 677 409 678 289 165 407 166 409 167 548 6 590 7 588 8 548 9 544 10 590 11 594 0 706 1 704 2 594 3 589 4 706 5 633 33 318 34 317 35 633 36 631 37 318 38 428 33 174 34 175 35 428 36 426 37 174 38 545 45 583 46 584 47 545 48 543 49 583 50 703 96 592 97 586 98 46 320 703 321 586 322 48 102 703 103 46 104 48 96 705 97 703 98 619 33 638 34 636 35 619 222 617 223 638 224 638 55 617 56 675 54 638 33 675 34 677 35 102 96 408 97 406 98 130 320 102 321 406 322 132 102 102 103 130 104 132 96 104 97 102 98 108 0 158 1 160 2 108 3 109 4 158 5 127 33 208 34 210 35 127 36 129 37 208 38 455 679 266 680 268 681 455 682 453 683 266 684 581 0 685 1 691 2 581 3 582 4 685 5 685 0 372 1 370 2 685 3 683 4 372 5 417 33 126 34 128 35 417 36 415 37 126 38 101 0 138 1 136 2 101 3 99 4 138 5 149 6 186 7 188 8 149 9 136 10 186 11 585 0 688 1 690 2 585 3 587 4 688 5 637 33 672 34 674 35 637 36 635 37 672 38 325 314 361 312 363 313 325 79 324 80 361 78 371 0 98 1 100 2 371 3 369 4 98 5 107 121 148 120 150 122 107 125 103 124 148 123 437 33 254 34 256 35 437 36 436 37 254 38 673 33 323 34 322 35 673 36 671 37 323 38 689 69 374 70 106 71 374 72 43 73 106 74 689 180 687 181 374 182 43 183 105 184 106 185 687 186 376 187 374 188 43 189 45 190 105 191 376 192 687 193 105 194 45 195 376 196 105 197 332 33 405 34 403 35 332 36 334 37 405 38 375 12 42 13 44 14 375 15 373 16 42 17 260 685 451 686 333 687 451 688 676 689 333 690 333 691 404 692 260 693 676 33 331 34 333 35 451 204 452 205 676 206 404 694 85 695 260 696 676 36 678 37 331 38 85 370 258 371 260 372 404 33 83 34 85 35 404 36 402 37 83 38 723 33 365 34 367 35 723 36 721 37 365 38 707 33 350 34 352 35 707 36 708 37 350 38 359 33 58 34 60 35 359 36 352 37 58 38 227 33 242 34 244 35 227 36 229 37 242 38 522 33 571 34 570 35 522 36 520 37 571 38 662 0 702 1 700 2 662 3 663 4 702 5 347 120 50 121 52 122 347 123 349 124 50 125 201 33 226 34 228 35 201 36 203 37 226 38 479 0 491 1 496 2 479 3 477 4 491 5 285 0 299 1 301 2 285 3 284 4 299 5 713 33 354 34 356 35 713 36 712 37 354 38 727 33 384 34 386 35 727 36 725 37 384 38 143 0 179 1 178 2 143 3 144 4 179 5 197 33 221 34 220 35 197 36 199 37 221 38 447 33 460 34 458 35 447 36 445 37 460 38 490 0 532 1 533 2 490 3 488 4 532 5 35 0 87 1 89 2 35 3 37 4 87 5 92 0 145 1 141 2 92 3 89 4 145 5 171 33 198 34 439 35 171 222 167 223 198 224 167 141 196 142 198 143 608 39 628 40 668 41 628 141 670 142 668 143 608 144 602 145 628 146 602 141 630 142 628 143 64 135 111 136 115 137 64 138 56 139 111 140 231 33 246 34 248 35 231 36 233 37 246 38 459 33 468 34 466 35 459 36 457 37 468 38 530 0 580 1 579 2 530 3 531 4 580 5 336 0 0 1 2 2 336 3 338 4 0 5 440 33 230 34 232 35 440 36 438 37 230 38 215 12 238 13 240 14 215 15 213 16 238 17 475 1 462 0 476 2 464 4 462 3 475 5 516 34 482 33 518 35 484 37 482 36 516 38 605 34 508 33 610 35 605 37 610 36 627 38 510 223 508 222 605 224 627 200 610 199 629 198 600 142 510 141 605 143 610 223 614 222 629 224 629 40 614 39 669 41 667 142 629 141 669 143 559 34 516 33 564 35 515 37 516 36 559 38 603 202 573 201 613 203 576 205 573 204 603 206 253 34 173 33 251 35 169 37 173 36 253 38 535 1 503 0 534 2 506 4 503 3 535 5 271 334 454 333 529 335 527 142 271 141 529 143 456 698 454 697 271 699 270 82 456 83 271 81 40 97 94 96 38 98 94 321 134 320 38 322 94 103 131 102 134 104 96 97 131 96 94 98 190 7 142 6 187 8 133 10 142 9 190 11 330 34 321 33 328 35 317 37 321 36 330 38 211 34 177 33 209 35 175 37 177 36 211 38 364 312 329 314 362 313 327 80 329 79 364 78 408 1 684 0 410 2 686 4 684 3 408 5 237 34 210 33 235 35 208 37 210 36 237 38 257 34 236 33 255 35 234 37 236 36 257 38 86 34 326 33 84 35 322 37 326 36 86 38 261 202 448 201 259 203 450 205 448 204 261 206 696 701 661 700 19 702 20 704 696 703 19 705 660 4 661 3 696 5 698 133 696 134 20 132 368 34 722 33 366 35 724 37 722 36 368 38 279 34 521 33 277 35 523 37 521 36 279 38 659 1 624 0 658 2 626 707 624 706 659 105 655 130 626 129 659 131 659 572 697 571 655 573 655 709 697 708 693 710 657 10 655 9 693 11 18 1 693 0 16 2 695 4 693 3 18 5 351 232 710 231 59 233 61 142 351 141 59 143 709 223 710 222 351 224 353 142 709 141 351 143 33 34 367 33 31 35 365 37 367 36 33 38 157 1 423 0 156 2 425 4 423 3 157 5 245 34 442 33 243 35 444 37 442 36 245 38 540 1 478 0 553 2 540 712 553 711 623 713 480 4 478 3 540 5 540 316 623 315 654 29 553 715 625 714 623 716 651 1 540 0 654 2 654 1 623 0 656 2 551 243 625 242 553 244 651 67 654 66 692 68 542 4 540 3 651 5 651 322 692 321 343 320 692 1 654 0 694 2 345 13 651 12 343 14 343 19 692 18 12 20 653 16 651 15 345 17 15 22 343 21 12 23 294 34 278 33 292 35 276 37 278 36 294 38 389 34 726 33 390 35 728 37 726 36 389 38 53 7 17 6 51 8 14 718 17 717 53 719 14 721 53 720 424 722 420 724 14 723 424 725 424 727 53 726 154 728 152 130 424 129 154 131 420 151 155 152 422 150 155 730 180 729 422 731 180 46 155 45 182 47 441 34 433 33 443 35 435 37 433 36 441 38 550 202 498 201 552 203 499 205 498 204 550 206 537 1 493 0 541 2 495 4 493 3 537 5 300 733 537 732 652 734 648 130 300 129 652 131 539 67 537 66 300 68 302 22 539 21 300 23 312 34 293 33 310 35 291 37 293 36 312 38 342 13 648 12 340 14 650 16 648 15 342 17 355 34 714 33 357 35 711 37 714 36 355 38 11 13 344 12 9 14 340 16 344 15 11 17 32 34 387 33 29 35 388 37 387 36 32 38 412 736 13 735 421 737 419 279 412 738 421 739 9 124 13 125 412 123 412 66 419 68 414 67 414 322 419 321 146 320 146 1 419 0 147 2 181 741 153 740 185 742 151 744 153 743 181 745 536 1 489 0 538 2 492 118 489 117 536 119 492 322 536 321 283 320 283 1 536 0 284 2 699 1 555 0 701 2 557 4 555 3 699 5 311 34 566 33 308 35 569 37 566 36 311 38 647 13 301 12 649 14 299 16 301 15 647 17 165 1 348 0 163 2 346 4 348 3 165 5 28 34 382 33 26 35 385 37 382 36 28 38 10 356 413 355 8 357 8 403 413 404 411 402 393 4 8 3 411 5 82 34 30 33 80 35 26 37 30 36 82 38 431 52 200 51 434 53 200 55 222 54 434 56 200 199 223 198 222 200 202 52 223 51 200 53 265 34 446 33 263 35 449 37 446 36 265 38 612 747 563 746 307 748 612 750 307 749 316 751 561 80 563 79 612 78 616 37 612 36 316 38 307 753 314 752 316 754 309 52 314 51 307 53 621 7 286 6 622 8 281 10 286 9 621 11 644 97 339 96 646 98 339 756 90 755 646 757 339 758 391 597 90 759 90 1 391 0 88 2 339 10 341 9 391 11 391 7 341 6 392 8 718 33 383 35 381 34 720 761 718 760 381 762 720 56 381 55 399 54 399 34 381 33 25 35 25 52 73 51 399 53 399 199 73 198 72 200 25 37 27 36 73 38 401 37 399 36 72 38 73 34 27 33 79 35 73 37 79 36 125 38 125 34 79 33 123 35 79 37 81 36 123 38 123 40 81 39 432 41 430 142 123 141 432 143 116 764 395 763 114 765 397 139 395 138 116 140 216 7 184 6 217 8 183 10 184 9 216 11 565 34 524 33 568 35 526 37 524 36 565 38 643 121 282 120 645 122 280 124 282 123 643 125 313 767 716 766 604 768 598 223 604 222 716 224 313 769 715 330 716 770 598 772 716 771 394 330 715 200 313 199 717 198 598 774 394 773 57 775 716 776 360 58 394 777 715 37 717 36 358 38 315 779 717 778 313 780 57 34 394 33 55 35 360 199 396 198 394 200 358 65 717 781 398 330 717 34 315 33 719 35 358 52 396 51 360 53 396 142 358 141 398 143 398 34 717 33 400 35 396 37 398 36 71 38 71 34 398 33 70 35 3 1 680 0 1 2 682 4 680 3 3 5 121 34 74 33 122 35 68 37 74 36 121 38 170 136 124 135 167 137 122 139 124 138 170 140 241 13 219 12 239 14 218 16 219 15 241 17 249 34 224 33 247 35 225 37 224 36 249 38 517 34 264 33 525 35 262 37 264 36 517 38 497 13 474 12 494 14 473 16 474 15 497 17 562 34 517 33 567 35 519 37 517 36 562 38 679 7 640 6 681 8 642 10 640 9 679 11 113 1 56 0 111 2 54 4 56 3 113 5</p>
</polylist>
</mesh>
</geometry>
</library_geometries>
<library_visual_scenes>
<visual_scene id="Scene" name="Scene">
<node id="Tree" name="Tree" type="NODE">
<translate sid="location">0 0 0</translate>
<rotate sid="rotationZ">0 0 1 0</rotate>
<rotate sid="rotationY">0 1 0 0</rotate>
<rotate sid="rotationX">1 0 0 0</rotate>
<scale sid="scale">0.05 0.05 0.05</scale>
<instance_geometry url="#Plane-tex-mesh">
<bind_material>
<technique_common>
<instance_material symbol="lambert0-material" target="#lambert0-material">
<bind_vertex_input input_semantic="TEXCOORD" input_set="0" semantic="TEX0"/>
</instance_material>
</technique_common>
</bind_material>
</instance_geometry>
</node>
</visual_scene>
</library_visual_scenes>
<scene>
<instance_visual_scene url="#Scene"/>
</scene>
</COLLADA>
